[
  {
    "fields": {
      "codename": "add_logentry",
      "name": "Can add log entry",
      "content_type": 1
    },
    "model": "auth.permission",
    "pk": 1
  },
  {
    "fields": {
      "codename": "change_logentry",
      "name": "Can change log entry",
      "content_type": 1
    },
    "model": "auth.permission",
    "pk": 2
  },
  {
    "fields": {
      "codename": "delete_logentry",
      "name": "Can delete log entry",
      "content_type": 1
    },
    "model": "auth.permission",
    "pk": 3
  },
  {
    "fields": {
      "codename": "add_permission",
      "name": "Can add permission",
      "content_type": 2
    },
    "model": "auth.permission",
    "pk": 4
  },
  {
    "fields": {
      "codename": "change_permission",
      "name": "Can change permission",
      "content_type": 2
    },
    "model": "auth.permission",
    "pk": 5
  },
  {
    "fields": {
      "codename": "delete_permission",
      "name": "Can delete permission",
      "content_type": 2
    },
    "model": "auth.permission",
    "pk": 6
  },
  {
    "fields": {
      "codename": "add_group",
      "name": "Can add group",
      "content_type": 3
    },
    "model": "auth.permission",
    "pk": 7
  },
  {
    "fields": {
      "codename": "change_group",
      "name": "Can change group",
      "content_type": 3
    },
    "model": "auth.permission",
    "pk": 8
  },
  {
    "fields": {
      "codename": "delete_group",
      "name": "Can delete group",
      "content_type": 3
    },
    "model": "auth.permission",
    "pk": 9
  },
  {
    "fields": {
      "codename": "add_user",
      "name": "Can add user",
      "content_type": 4
    },
    "model": "auth.permission",
    "pk": 10
  },
  {
    "fields": {
      "codename": "change_user",
      "name": "Can change user",
      "content_type": 4
    },
    "model": "auth.permission",
    "pk": 11
  },
  {
    "fields": {
      "codename": "delete_user",
      "name": "Can delete user",
      "content_type": 4
    },
    "model": "auth.permission",
    "pk": 12
  },
  {
    "fields": {
      "codename": "add_contenttype",
      "name": "Can add content type",
      "content_type": 5
    },
    "model": "auth.permission",
    "pk": 13
  },
  {
    "fields": {
      "codename": "change_contenttype",
      "name": "Can change content type",
      "content_type": 5
    },
    "model": "auth.permission",
    "pk": 14
  },
  {
    "fields": {
      "codename": "delete_contenttype",
      "name": "Can delete content type",
      "content_type": 5
    },
    "model": "auth.permission",
    "pk": 15
  },
  {
    "fields": {
      "codename": "add_session",
      "name": "Can add session",
      "content_type": 6
    },
    "model": "auth.permission",
    "pk": 16
  },
  {
    "fields": {
      "codename": "change_session",
      "name": "Can change session",
      "content_type": 6
    },
    "model": "auth.permission",
    "pk": 17
  },
  {
    "fields": {
      "codename": "delete_session",
      "name": "Can delete session",
      "content_type": 6
    },
    "model": "auth.permission",
    "pk": 18
  },
  {
    "fields": {
      "codename": "add_userprofile",
      "name": "Can add user profile",
      "content_type": 7
    },
    "model": "auth.permission",
    "pk": 19
  },
  {
    "fields": {
      "codename": "change_userprofile",
      "name": "Can change user profile",
      "content_type": 7
    },
    "model": "auth.permission",
    "pk": 20
  },
  {
    "fields": {
      "codename": "delete_userprofile",
      "name": "Can delete user profile",
      "content_type": 7
    },
    "model": "auth.permission",
    "pk": 21
  },
  {
    "fields": {
      "username": "admin",
      "first_name": "",
      "last_name": "",
      "is_active": true,
      "is_superuser": true,
      "is_staff": true,
      "last_login": "2016-03-17T15:41:08Z",
      "groups": [],
      "user_permissions": [],
      "password": "pbkdf2_sha256$12000$MQiaUCM7o3sE$p6nmkDG7Rs/Q1SKC8/FZN62BtOMoxRZ19BtSHoQqV6Y=",
      "email": "",
      "date_joined": "2016-03-17T15:41:03Z"
    },
    "model": "auth.user",
    "pk": 1
  },
  {
    "fields": {
      "username": "test1",
      "first_name": "",
      "last_name": "",
      "is_active": true,
      "is_superuser": false,
      "is_staff": false,
      "last_login": "2016-03-17T19:15:26.299Z",
      "groups": [],
      "user_permissions": [],
      "password": "pbkdf2_sha256$12000$UFgTqFqBaLYD$a8WBi3nLMJxMRt3n+ZIAhyVnlLPBjxIF0J6uMtjRbb0=",
      "email": "",
      "date_joined": "2016-03-17T19:15:26.299Z"
    },
    "model": "auth.user",
    "pk": 2
  },
  {
    "fields": {
      "username": "test2",
      "first_name": "",
      "last_name": "",
      "is_active": true,
      "is_superuser": false,
      "is_staff": false,
      "last_login": "2016-03-17T19:18:09.854Z",
      "groups": [],
      "user_permissions": [],
      "password": "pbkdf2_sha256$12000$lHUPqs4wja6Q$gKx/auPBs4AYTX4jjkIPcx31nPHyFvsfYs9FV4VWIxM=",
      "email": "",
      "date_joined": "2016-03-17T19:18:09.855Z"
    },
    "model": "auth.user",
    "pk": 3
  },
  {
    "fields": {
      "username": "test3",
      "first_name": "",
      "last_name": "",
      "is_active": true,
      "is_superuser": false,
      "is_staff": false,
      "last_login": "2016-03-17T19:18:22.523Z",
      "groups": [],
      "user_permissions": [],
      "password": "pbkdf2_sha256$12000$nLgfcgOWXL71$Zm+B5CIopTB+0IRDZj+YZaKc4t3T2fw6YUgzB4Q03MM=",
      "email": "",
      "date_joined": "2016-03-17T19:18:22.524Z"
    },
    "model": "auth.user",
    "pk": 4
  }
]